[
  {
    "type": "block",
    "named": true,
    "fields": {},
    "children": {
      "multiple": true,
      "required": false,
      "types": [
        {
          "type": "block_directive",
          "named": true
        },
        {
          "type": "lua_block_directive",
          "named": true
        },
        {
          "type": "simple_directive",
          "named": true
        }
      ]
    }
  },
  {
    "type": "block_directive",
    "named": true,
    "fields": {
      "name": {
        "multiple": false,
        "required": true,
        "types": [
          {
            "type": "directive",
            "named": true
          }
        ]
      }
    },
    "children": {
      "multiple": true,
      "required": true,
      "types": [
        {
          "type": "block",
          "named": true
        },
        {
          "type": "param",
          "named": true
        }
      ]
    }
  },
  {
    "type": "bracket",
    "named": true,
    "fields": {},
    "children": {
      "multiple": true,
      "required": false,
      "types": [
        {
          "type": "param",
          "named": true
        }
      ]
    }
  },
  {
    "type": "conf",
    "named": true,
    "fields": {},
    "children": {
      "multiple": true,
      "required": false,
      "types": [
        {
          "type": "block_directive",
          "named": true
        },
        {
          "type": "lua_block_directive",
          "named": true
        },
        {
          "type": "simple_directive",
          "named": true
        }
      ]
    }
  },
  {
    "type": "lua_block",
    "named": true,
    "fields": {},
    "children": {
      "multiple": true,
      "required": true,
      "types": [
        {
          "type": "lua_code",
          "named": true
        }
      ]
    }
  },
  {
    "type": "lua_block_directive",
    "named": true,
    "fields": {},
    "children": {
      "multiple": false,
      "required": true,
      "types": [
        {
          "type": "lua_block",
          "named": true
        }
      ]
    }
  },
  {
    "type": "lua_code",
    "named": true,
    "fields": {}
  },
  {
    "type": "modifier",
    "named": true,
    "fields": {}
  },
  {
    "type": "param",
    "named": true,
    "fields": {},
    "children": {
      "multiple": false,
      "required": true,
      "types": [
        {
          "type": "bracket",
          "named": true
        },
        {
          "type": "generic",
          "named": true
        },
        {
          "type": "ipv4",
          "named": true
        },
        {
          "type": "metric",
          "named": true
        },
        {
          "type": "modifier",
          "named": true
        },
        {
          "type": "number",
          "named": true
        },
        {
          "type": "parenthese",
          "named": true
        },
        {
          "type": "regex",
          "named": true
        },
        {
          "type": "string",
          "named": true
        },
        {
          "type": "uri",
          "named": true
        },
        {
          "type": "variable",
          "named": true
        }
      ]
    }
  },
  {
    "type": "parenthese",
    "named": true,
    "fields": {},
    "children": {
      "multiple": true,
      "required": false,
      "types": [
        {
          "type": "param",
          "named": true
        }
      ]
    }
  },
  {
    "type": "regex",
    "named": true,
    "fields": {
      "pattern": {
        "multiple": false,
        "required": false,
        "types": [
          {
            "type": "regex_pattern",
            "named": true
          }
        ]
      }
    },
    "children": {
      "multiple": false,
      "required": false,
      "types": [
        {
          "type": "escaped_dot",
          "named": true
        }
      ]
    }
  },
  {
    "type": "simple_directive",
    "named": true,
    "fields": {
      "name": {
        "multiple": false,
        "required": true,
        "types": [
          {
            "type": "directive",
            "named": true
          }
        ]
      }
    },
    "children": {
      "multiple": true,
      "required": false,
      "types": [
        {
          "type": "param",
          "named": true
        }
      ]
    }
  },
  {
    "type": "string",
    "named": true,
    "fields": {},
    "children": {
      "multiple": true,
      "required": false,
      "types": [
        {
          "type": "dq_string_content",
          "named": true
        },
        {
          "type": "sq_string_content",
          "named": true
        },
        {
          "type": "variable",
          "named": true
        }
      ]
    }
  },
  {
    "type": "uri",
    "named": true,
    "fields": {
      "scheme": {
        "multiple": false,
        "required": true,
        "types": [
          {
            "type": "scheme",
            "named": true
          }
        ]
      }
    },
    "children": {
      "multiple": false,
      "required": true,
      "types": [
        {
          "type": "generic",
          "named": true
        },
        {
          "type": "ipv4",
          "named": true
        },
        {
          "type": "variable",
          "named": true
        }
      ]
    }
  },
  {
    "type": "variable",
    "named": true,
    "fields": {}
  },
  {
    "type": "\"",
    "named": false
  },
  {
    "type": "'",
    "named": false
  },
  {
    "type": "(",
    "named": false
  },
  {
    "type": ")",
    "named": false
  },
  {
    "type": ".",
    "named": false
  },
  {
    "type": "/",
    "named": false
  },
  {
    "type": ";",
    "named": false
  },
  {
    "type": "[",
    "named": false
  },
  {
    "type": "]",
    "named": false
  },
  {
    "type": "access_by_lua_block",
    "named": false
  },
  {
    "type": "balancer_by_lua_block",
    "named": false
  },
  {
    "type": "body_filter_by_lua_block",
    "named": false
  },
  {
    "type": "comment",
    "named": true
  },
  {
    "type": "content_by_lua_block",
    "named": false
  },
  {
    "type": "directive",
    "named": true
  },
  {
    "type": "dq_string_content",
    "named": true
  },
  {
    "type": "escaped_dot",
    "named": true
  },
  {
    "type": "generic",
    "named": true
  },
  {
    "type": "header_filter_by_lua_block",
    "named": false
  },
  {
    "type": "ipv4",
    "named": true
  },
  {
    "type": "log_by_lua_block",
    "named": false
  },
  {
    "type": "metric",
    "named": true
  },
  {
    "type": "number",
    "named": true
  },
  {
    "type": "regex_pattern",
    "named": true
  },
  {
    "type": "rewrite_by_lua_block",
    "named": false
  },
  {
    "type": "scheme",
    "named": true
  },
  {
    "type": "sq_string_content",
    "named": true
  },
  {
    "type": "{",
    "named": false
  },
  {
    "type": "}",
    "named": false
  }
]